Hypothesis testing
…
- Como é que poderia realizar o mesmo procedimento acima (alterar só aqueles valores para TRUE), mas utilizando uma função do tidyverse?

--

```r
cirurgias_Guarda <- cirurgias_Guarda %>% 
  mutate(resultado = if_else(no_cirurgia <= 30, TRUE, FALSE))

# Bonus: sem utilizar a variável n.º da cirurgia
cirurgias_Guarda %>% mutate(resultado = if_else(n() <= 30, TRUE, FALSE))
```

```
## # A tibble: 501 × 3
##   no_cirurgia I_Complicacoes resultado
##         <int> <lgl>          <lgl>    
## 1           0 TRUE           FALSE    
## 2           1 TRUE           FALSE    
## 3           2 TRUE           FALSE    
## 4           3 TRUE           FALSE    
## 5           4 TRUE           FALSE    
## 6           5 TRUE           FALSE    
## # ℹ 495 more rows
```
…
