The language of models
…
---

## Importe os dados

```r
pp <- readxl::read_excel("data/paris-paintings.xlsx", sheet = "data", 
               na = c("n/a", "", "NA"))

pp
```

```
## # A tibble: 3,393 × 61
##   name     sale  lot   position dealer  year origin_author
##   <chr>    <chr> <chr>    <dbl> <chr>  <dbl> <chr>        
## 1 L1764-2  L1764 2       0.0328 L       1764 F            
## 2 L1764-3  L1764 3       0.0492 L       1764 I            
## 3 L1764-4  L1764 4       0.0656 L       1764 X            
## 4 L1764-5a L1764 5       0.0820 L       1764 F            
## 5 L1764-5b L1764 5       0.0820 L       1764 F            
## 6 L1764-6  L1764 6       0.0984 L       1764 X            
## # ℹ 3,387 more rows
## # ℹ 54 more variables: origin_cat <chr>, school_pntg <chr>,
## #   diff_origin <dbl>, logprice <dbl>, price <chr>, count <dbl>,
## #   subject <chr>, authorstandard <chr>, artistliving <dbl>,
## #   authorstyle <chr>, author <chr>, winningbidder <chr>,
## #   winningbiddertype <chr>, endbuyer <chr>, Interm <dbl>,
## #   type_intermed <chr>, Height_in <dbl>, Width_in <dbl>, …
```
…
